Working with Choice Data in R • choicedata
…
choice_likelihood: the likelihood of the choice model, formed by choice_probabilities.

The objects are designed to be modular and can be combined in various ways to create a range of modeling workflows.

Examples

Empirical data

The travel_mode_choice data set contains the revealed preferences of 210 travelers choosing between plane, train, bus, and car. We can transform the data from long to wide format, or construct model design matrices:

library("choicedata")

travel_mode_choice
#> # A tibble: 840 × 8
#>    individual mode  choice  wait  cost travel income  size
#>         <int> <chr>  <int> <int> <int>  <int>  <int> <int>
#>  1          1 plane      0    69    59    100     35     1
#>  2          1 train      0    34    31    372     35     1
#>  3          1 bus        0    35    25    417     35     1
#>  4          1 car        1     0    10    180     35     1
#>  5          2 plane      0    64    58     68     30     2
#>  6          2 train      0    44    31    354     30     2
#>  7          2 bus        0    53    25    399     30     2
#>  8          2 car        1     0    11    255     30     2
#>  9          3 plane      0    69   115    125     40     1
#> 10          3 train      0    34    98    892     40     1
#> # ℹ 830 more rows

long_to_wide(
  data_frame = travel_mode_choice,
  column_alternative = "mode",
  column_decider = "individual"
)
#> # A tibble: 210 × 16
#>    individual income  size wait_plane wait_train wait_bus wait_car cost_plane
#>         <int>  <int> <int>      <int>      <int>    <int>    <int>      <int>
#>  1          1     35     1         69         34       35        0         59
#>  2          2     30     2         64         44       53        0         58
#>  3          3     40     1         69         34       35        0        115
#>  4          4     70     3         64         44       53        0         49
#>  5          5     45     2         64         44       53        0         60
#>  6          6     20     1         69         40       35        0         59
#>  7          7     45     1         45         34       35        0        148
#>  8          8     12     1         69         34       35        0        121
#>  9          9     40     1         69         34       35        0         59
#> 10         10     70     2         69         34       35        0         58
#> # ℹ 200 more rows
#> # ℹ 8 more variables: cost_train <int>, cost_bus <int>, cost_car <int>,
#> #   travel_plane <int>, travel_train <int>, travel_bus <int>, travel_car <int>,
#> #   choice <chr>
…
sim_parameters <- generate_choice_parameters(sim_effects)

(sim_data <- generate_choice_data(
  choice_effects = sim_effects,
  choice_identifiers = generate_choice_identifiers(N = 200),
  choice_parameters = sim_parameters,
  choice_type = "ranked"
))
#> # A tibble: 200 × 13
#>    deciderID occasionID choice        B choice_A choice_B choice_C     A_A
#>  * <chr>     <chr>      <chr>     <dbl>    <int>    <int>    <int>   <dbl>
#>  1 1         1          B       1.12           2        1        3  0.576 
#>  2 2         1          B       0.782          3        1        2 -0.0449
#>  3 3         1          B      -0.478          2        1        3  0.0746
#>  4 4         1          B      -0.415          3        1        2  0.418 
#>  5 5         1          B       0.697          2        1        3 -0.394 
#>  6 6         1          B       0.881          2        1        3  0.557 
#>  7 7         1          B      -0.367          3        1        2  0.398 
#>  8 8         1          B       0.0280         3        1        2 -1.04  
#>  9 9         1          C       0.476          3        2        1 -0.743 
#> 10 10        1          B       0.00111        2        1        3 -0.710 
#> # ℹ 190 more rows
#> # ℹ 5 more variables: A_B <dbl>, A_C <dbl>, C_A <dbl>, C_B <dbl>, C_C <dbl>
…
