Define choice identifiers — choice_identifiers • choicedata
…
### read choice identifiers
choice_identifiers(
  data_frame = travel_mode_choice,
  format = "long",
  column_decider = "individual",
  column_occasion = NULL,
  cross_section = TRUE
)
#> # A tibble: 210 × 1
#>    individual
#>  * <chr>     
#>  1 1         
#>  2 2         
#>  3 3         
#>  4 4         
#>  5 5         
#>  6 6         
#>  7 7         
#>  8 8         
#>  9 9         
#> 10 10        
#> # ℹ 200 more rows
…
