Define choice data — choice_data • choicedata
…
    choice_responses(), choice_covariates(), and choice_identifiers() for
the helper objects that feed into choice_data().

    Examples

### simulate data from a multinomial probit model
choice_effects <- choice_effects(
  choice_formula = choice_formula(
    formula = choice ~ A | B, error_term = "probit",
    random_effects = c("A" = "cn")
  ),
  choice_alternatives = choice_alternatives(J = 3)
)
generate_choice_data(choice_effects)
#> # A tibble: 100 × 7
#>    deciderID occasionID choice      B     A_A     A_B     A_C
#>  * <chr>     <chr>      <chr>   <dbl>   <dbl>   <dbl>   <dbl>
#>  1 1         1          C       0.118  2.76    0.0465  0.578 
#>  2 2         1          C      -0.206 -1.91    0.862  -0.243 
#>  3 3         1          C      -2.27   0.0192  0.0296  0.550 
#>  4 4         1          A       1.07   2.68   -0.361   0.213 
#>  5 5         1          C      -1.18  -0.665   1.11   -0.246 
#>  6 6         1          C       0.489 -0.976   1.07    0.132 
#>  7 7         1          A       1.34  -1.70   -1.47    0.284 
#>  8 8         1          C       0.607  0.237   1.32    0.524 
#>  9 9         1          A       1.92  -0.110   0.172  -0.0903
#> 10 10        1          C      -0.548  1.30    0.749   0.556 
#> # ℹ 90 more rows

### transform between long/wide format
long_to_wide(
  data_frame = travel_mode_choice,
  column_alternative = "mode",
  column_decider = "individual"
)
#> # A tibble: 210 × 16
#>    individual income  size wait_plane wait_train wait_bus wait_car cost_plane
#>         <int>  <int> <int>      <int>      <int>    <int>    <int>      <int>
#>  1          1     35     1         69         34       35        0         59
#>  2          2     30     2         64         44       53        0         58
#>  3          3     40     1         69         34       35        0        115
#>  4          4     70     3         64         44       53        0         49
#>  5          5     45     2         64         44       53        0         60
#>  6          6     20     1         69         40       35        0         59
#>  7          7     45     1         45         34       35        0        148
#>  8          8     12     1         69         34       35        0        121
#>  9          9     40     1         69         34       35        0         59
#> 10         10     70     2         69         34       35        0         58
#> # ℹ 200 more rows
#> # ℹ 8 more variables: cost_train <int>, cost_bus <int>, cost_car <int>,
#> #   travel_plane <int>, travel_train <int>, travel_bus <int>, travel_car <int>,
#> #   choice <chr>
wide_to_long(
  data_frame = train_choice
)
#> # A tibble: 5,858 × 8
#>    deciderID occasionID choice alternative price  time change comfort
#>        <int>      <int>  <int> <chr>       <dbl> <dbl>  <int> <fct>  
#>  1         1          1      1 A            52.9  2.5       0 1      
#>  2         1          1      0 B            88.1  2.5       0 1      
#>  3         1          2      1 A            52.9  2.5       0 1      
#>  4         1          2      0 B            70.5  2.17      0 1      
#>  5         1          3      1 A            52.9  1.92      0 1      
#>  6         1          3      0 B            88.1  1.92      0 0      
#>  7         1          4      0 A            88.1  2.17      0 1      
#>  8         1          4      1 B            70.5  2.5       0 0      
#>  9         1          5      0 A            52.9  2.5       0 1      
#> 10         1          5      1 B            70.5  2.5       0 0      
#> # ℹ 5,848 more rows
…
