Define choice response — choice_responses • choicedata
…
    Value

    A data.frame.

    Examples

choice_effects <- choice_effects(
  choice_formula = choice_formula(
    formula = choice ~ price | time,
    error_term = "probit"
  ),
  choice_alternatives = choice_alternatives(J = 5)
)
generate_choice_responses(choice_effects = choice_effects)
#> # A tibble: 100 × 3
#>    deciderID occasionID choice
#>  * <chr>     <chr>      <chr> 
#>  1 1         1          C     
#>  2 2         1          C     
#>  3 3         1          A     
#>  4 4         1          C     
#>  5 5         1          E     
#>  6 6         1          C     
#>  7 7         1          D     
#>  8 8         1          A     
#>  9 9         1          C     
#> 10 10        1          C     
#> # ℹ 90 more rows
…
